{"results":[{"attributes":{"date":"2018-05-29T00:00:00.000Z","title":"Successfully installed and running!","author":"The DADI Team","_id":"welcome","_ext":".md","_loc":"workspace/posts/welcome.md","_path":null},"contentHtml":"<p>We&#39;ve setup a sample blog configuration for you to explore and modify. For example, this post can be found in <code>workspace/posts/welcome.md</code></p>\n<p>The next step is probably to explore the <a href=\"http://docs.dadi.cloud\">documentation</a> and the source code to our site, <a href=\"https://dadi.cloud\">DADI.cloud</a> as an <a href=\"https://github.com/dadi/cloud\">example project</a>.</p>\n<h3 id=\"things-to-try\">Things to try</h3>\n<ol>\n<li><p>You are reading <code>workspace/posts/welcome.md</code>. Try changing something in this file, save and refresh to see it updated here.</p>\n</li>\n<li><p>Create your first datasource. Here is an example of a markdown based one, which is serving the content you are reading.</p>\n</li>\n</ol>\n<pre><code class=\"lang-json\">{\n  &quot;datasource&quot;: {\n    &quot;key&quot;: &quot;posts&quot;,\n    &quot;name&quot;: &quot;Blog posts as markdown files.&quot;,\n    &quot;source&quot;: {\n      &quot;type&quot;: &quot;markdown&quot;,\n      &quot;path&quot;: &quot;./posts&quot;\n    },\n    &quot;paginate&quot;: true,\n    &quot;count&quot;: 5,\n    &quot;sort&quot;: {\n      &quot;date&quot;: -1\n    },\n    &quot;requestParams&quot;: [\n      {\n        &quot;param&quot;: &quot;handle&quot;, &quot;field&quot;: &quot;handle&quot;\n      }\n    ]\n  }\n}\n</code></pre>\n<ol start=\"3\">\n<li>Learn more about <a href=\"https://dadi.cloud/en/api/\">DADI API</a> and how you can use it with your new installation of <em>DADI Web</em></li>\n</ol>\n"},{"attributes":{"date":"2016-04-05T00:00:00.000Z","title":"How to change the site name in the header","author":"The DADI Team","_id":"site-name","_ext":".md","_loc":"workspace/posts/site-name.md","_path":null},"contentHtml":"<p>To change the name of this example site, look into the <code>config/config.development.json</code> file.</p>\n<pre><code class=\"lang-json\">&quot;global&quot;: {\n  &quot;site&quot;: &quot;Your site name&quot;,\n  &quot;description&quot;: &quot;An exciting beginning.&quot;\n}\n</code></pre>\n<p>Any variables you add in the <code>global</code> object will be available for use in your page templates.</p>\n"},{"attributes":{"date":"2014-04-17T00:00:00.000Z","title":"We can handle pagination too...","author":"The DADI Team","_id":"paginated","_ext":".md","_loc":"workspace/posts/paginated.md","_path":null},"contentHtml":"<p>This install uses our pagination helper which we have taken from our <a href=\"https://www.npmjs.com/package/@dadi/dustjs-helpers\">Dust.js helpers</a> package. We also recommend including the <a href=\"https://github.com/rodw/common-dustjs-helpers\">common Dust.js helpers</a>.</p>\n"},{"attributes":{"date":"2016-04-17T00:00:00.000Z","title":"How to create a new page","author":"The DADI Team","_id":"pages","_ext":".md","_loc":"workspace/posts/pages.md","_path":null},"contentHtml":"<p>Add files <code>your-page-name.json</code> and <code>your-page-name.dust</code> to the <code>workspace/pages</code> folder:</p>\n<pre><code class=\"lang-json\">{\n  &quot;page&quot;: {\n    &quot;name&quot;: &quot;your_page_name&quot;,\n    &quot;description&quot;: &quot;A description so you know what it does&quot;,\n  },\n  &quot;routes&quot;: [\n    {\n      &quot;path&quot;: &quot;/your-page-name&quot;\n    }\n  ]\n}\n</code></pre>\n<p>In the dust file you can put any HTML or make use of the syntax provided by <a href=\"http://www.dustjs.com/\">Dust.js</a>.</p>\n<pre><code>{&gt;&quot;partials/header&quot; /}\n\nHello world!\n\n{&gt;&quot;partials/footer&quot; /}\n</code></pre>"},{"attributes":{"date":"2015-04-17T00:00:00.000Z","title":"Look, a post with an image in","author":"The DADI Team","_id":"image","_ext":".md","_loc":"workspace/posts/image.md","_path":null},"contentHtml":"<p><img src=\"http://52.213.165.8:8001/samples/moose.jpg?width=700&amp;resizeStyle=aspectfit\" alt=\"A picture\"></p>\n<p>This image is loaded using our <a href=\"http://docs.dadi.cloud/sandbox/cdn/\">DADI CDN</a> sandbox.</p>\n"}],"metadata":{"page":1,"limit":5,"offset":0,"totalCount":6,"totalPages":2,"nextPage":2}}